<?xml version="1.0" encoding="utf-8"?>
<!-- Generator: Adobe Illustrator 19.0.0, SVG Export Plug-In . SVG Version: 6.00 Build 0)  -->
<svg version="1.1"
	 id="svg8" sodipodi:docname="update.svg" inkscape:version="0.92.3 (2405546, 2018-03-11)" inkscape:export-ydpi="307.20001" inkscape:export-xdpi="307.20001" inkscape:export-filename="D:\Bethesda Game Modding\Mod Organizer 2\stylesheets\Paper\Dark\dots.png" xmlns:rdf="http://www.w3.org/1999/02/22-rdf-syntax-ns#" xmlns:cc="http://creativecommons.org/ns#" xmlns:sodipodi="http://sodipodi.sourceforge.net/DTD/sodipodi-0.dtd" xmlns:svg="http://www.w3.org/2000/svg" xmlns:inkscape="http://www.inkscape.org/namespaces/inkscape" xmlns:dc="http://purl.org/dc/elements/1.1/"
	 xmlns="http://www.w3.org/2000/svg" xmlns:xlink="http://www.w3.org/1999/xlink" x="0px" y="0px" viewBox="-241 333 128 128"
	 style="enable-background:new -241 333 128 128;" xml:space="preserve">
<style type="text/css">
	.st0{display:none;}
	.st1{fill:#6934E5;}
</style>
<sodipodi:namedview  inkscape:window-width="1920" inkscape:guide-bbox="true" inkscape:snap-bbox-midpoints="true" inkscape:bbox-nodes="true" inkscape:snap-bbox="true" inkscape:snap-page="true" inkscape:showpageshadow="false" inkscape:pageshadow="2" inkscape:current-layer="layer25" inkscape:document-units="px" inkscape:pageopacity="0" inkscape:snap-intersection-paths="true" inkscape:snap-bbox-edge-midpoints="true" pagecolor="#505050" bordercolor="#666666" id="base" inkscape:cy="61.867245" showgrid="false" inkscape:zoom="7.2039069" inkscape:cx="73.953922" borderopacity="1.0" borderlayer="true" showguides="true" units="px" inkscape:snap-global="true" inkscape:snap-midpoints="true" inkscape:snap-smooth-nodes="true" inkscape:object-paths="true" inkscape:measure-end="20,12.498" inkscape:measure-start="18.8975,12.498" inkscape:snap-object-midpoints="true" inkscape:snap-center="true" inkscape:window-maximized="1" inkscape:window-y="-8" inkscape:window-x="-8" inkscape:window-height="1027">
	<sodipodi:guide  id="guide4039" position="64,64" orientation="1,0" inkscape:locked="false"></sodipodi:guide>
	
		<sodipodi:guide  inkscape:color="rgb(0,0,255)" id="guide3935" position="64,64" orientation="0,1" inkscape:locked="false" inkscape:label="">
		</sodipodi:guide>
</sodipodi:namedview>
<g id="layer25" transform="translate(0,108)" inkscape:label="Content" inkscape:groupmode="layer">
	
		<g id="g4217-3-45" transform="matrix(0.50121193,0,0,0.50121193,-6.8260092,-112.83314)" inkscape:export-ydpi="96" inkscape:export-xdpi="96">
		<g id="layer1-9-66" transform="translate(0,-783.36216)" inkscape:label="Reference" class="st0">
			
				<image style="display:inline;overflow:visible;enable-background:new    ;" width="269" height="269" id="image4166-8-4" xlink:href="6065E470.png"  transform="matrix(1 0 0 1 -480.8345 1457.3945)">
			</image>
		</g>
		<g id="layer2-9-1-52" inkscape:label="Trace">
			<g id="g4216-4-8">
				<path id="path4176-3-9" inkscape:connector-curvature="0" class="st1" d="M-448.5,730c-10.4,0-18.7,8.4-18.7,18.7v53v53
					c0,10.4,8.4,18.7,18.7,18.7h66.9h53c5.7,0,11-2.6,14.6-7c9.4,4.4,19.7,6.9,30.4,7c0,0,0,0,0,0c39.4,0,71.7-32.3,71.7-71.7
					c0-39.4-32.3-71.7-71.7-71.7c0,0,0,0,0,0c-18.6,0-35.9,7.3-49,19.5c-13-12.2-30.4-19.5-49-19.5c0,0,0,0,0,0H-448.5z
					 M-448.6,748.7h66.9c21.5,0,40.8,13,49,32.9c8.2-19.9,27.5-32.9,49-32.9c29.3,0,53,23.7,53,53c0,0,0,0,0,0c0,29.3-23.7,53-53,53
					c0,0,0,0,0,0c-18.3,0-35.3-9.5-45-25.1v25.1h-53h-66.9v-53V748.7z"/>
			</g>
		</g>
	</g>
</g>
</svg>
